waveforms/csr_interrupt_waveform.vcd
$date
     Jul 14, 2026       16:30:45
$end

$version
 SystemC 2.3.4-Accellera --- Apr 22 2024 14:54:19
$end

$timescale
     1 ps
$end

$scope module SystemC $end
$var wire    1  aaaaa  clock       $end
$var wire    1  aaaab  reset       $end
$var wire   32  aaaac  pc [31:0]  $end
$var wire   32  aaaad  cur_inst [31:0]  $end
$var wire   32  aaaae  count_reg [31:0]  $end
$var wire   32  aaaaf  compare_reg [31:0]  $end
$var wire   32  aaaag  status_reg [31:0]  $end
$var wire   32  aaaah  mstatus [31:0]  $end
$var wire   32  aaaai  mie [31:0]  $end
$var wire   32  aaaaj  mip [31:0]  $end
$var wire   32  aaaak  mepc [31:0]  $end
$var wire   32  aaaal  mcause [31:0]  $end
$var wire   32  aaaam  mtvec [31:0]  $end
$var wire    1  aaaan  irq_timer       $end
$upscope $end
$enddefinitions  $end

$comment
All initial values are dumped below at time 0 sec = 0 timescale units.
$end

$dumpvars
1aaaaa
1aaaab
b0 aaaac
b0 aaaad
b0 aaaae
b11111111111111111111111111111111 aaaaf
b0 aaaag
b0 aaaah
b0 aaaai
b0 aaaaj
b0 aaaak
b0 aaaal
b0 aaaam
0aaaan
$end

#500
0aaaaa

#1000
1aaaaa

#1500
0aaaaa

#2000
1aaaaa

#2500
0aaaaa

#3000
1aaaaa

#3500
0aaaaa

#4000
1aaaaa

#4500
0aaaaa

#5000
1aaaaa
0aaaab

#5500
0aaaaa

#6000
1aaaaa

#6500
0aaaaa

#7000
1aaaaa
b10000000000000000000010110111 aaaad

#7500
0aaaaa

#8000
1aaaaa

#8500
0aaaaa

#9000
1aaaaa

#9500
0aaaaa

#10000
1aaaaa
b100 aaaac

#10500
0aaaaa

#11000
1aaaaa

#11500
0aaaaa

#12000
1aaaaa

#12500
0aaaaa

#13000
1aaaaa
b100000000000000000100010011 aaaad

#13500
0aaaaa

#14000
1aaaaa

#14500
0aaaaa

#15000
1aaaaa

#15500
0aaaaa

#16000
1aaaaa
b1000 aaaac

#16500
0aaaaa

#17000
1aaaaa

#17500
0aaaaa

#18000
1aaaaa

#18500
0aaaaa

#19000
1aaaaa
b110000010100010001000001110011 aaaad

#19500
0aaaaa

#20000
1aaaaa

#20500
0aaaaa

#21000
1aaaaa

#21500
0aaaaa

#22000
1aaaaa
b1100 aaaac
b1000000 aaaam

#22500
0aaaaa

#23000
1aaaaa

#23500
0aaaaa

#24000
1aaaaa

#24500
0aaaaa

#25000
1aaaaa
b10100000000000110010011 aaaad

#25500
0aaaaa

#26000
1aaaaa

#26500
0aaaaa

#27000
1aaaaa

#27500
0aaaaa

#28000
1aaaaa
b10000 aaaac

#28500
0aaaaa

#29000
1aaaaa

#29500
0aaaaa

#30000
1aaaaa

#30500
0aaaaa

#31000
1aaaaa
b1100001010101000100011 aaaad

#31500
0aaaaa

#32000
1aaaaa

#32500
0aaaaa

#33000
1aaaaa

#33500
0aaaaa

#34000
1aaaaa
b101 aaaaf

#34500
0aaaaa

#35000
1aaaaa
b10100 aaaac

#35500
0aaaaa

#36000
1aaaaa

#36500
0aaaaa

#37000
1aaaaa

#37500
0aaaaa

#38000
1aaaaa
b100000000001000010011 aaaad

#38500
0aaaaa

#39000
1aaaaa

#39500
0aaaaa

#40000
1aaaaa

#40500
0aaaaa

#41000
1aaaaa
b11000 aaaac

#41500
0aaaaa

#42000
1aaaaa

#42500
0aaaaa

#43000
1aaaaa

#43500
0aaaaa

#44000
1aaaaa
b10000001010110000100011 aaaad

#44500
0aaaaa

#45000
1aaaaa

#45500
0aaaaa

#46000
1aaaaa

#46500
0aaaaa

#47000
1aaaaa
b1 aaaae

#47500
0aaaaa

#48000
1aaaaa
b11100 aaaac
b10 aaaae

#48500
0aaaaa

#49000
1aaaaa
b11 aaaae

#49500
0aaaaa

#50000
1aaaaa
b100 aaaae

#50500
0aaaaa

#51000
1aaaaa
b111111100000000001010010011 aaaad
b101 aaaae
b1 aaaag
1aaaan

#51500
0aaaaa

#52000
1aaaaa
b110 aaaae

#52500
0aaaaa

#53000
1aaaaa
b111 aaaae

#53500
0aaaaa

#54000
1aaaaa
b100000 aaaac
b1000 aaaae

#54500
0aaaaa

#55000
1aaaaa
b1001 aaaae
b10000000 aaaaj

#55500
0aaaaa

#56000
1aaaaa
b1010 aaaae

#56500
0aaaaa

#57000
1aaaaa
b100101000001010010011 aaaad
b1011 aaaae

#57500
0aaaaa

#58000
1aaaaa
b1100 aaaae

#58500
0aaaaa

#59000
1aaaaa
b1101 aaaae

#59500
0aaaaa

#60000
1aaaaa
b100100 aaaac
b1110 aaaae

#60500
0aaaaa

#61000
1aaaaa
b1111 aaaae

#61500
0aaaaa

#62000
1aaaaa
b10000 aaaae

#62500
0aaaaa

#63000
1aaaaa
b110000010000101001000001110011 aaaad
b10001 aaaae

#63500
0aaaaa

#64000
1aaaaa
b10010 aaaae

#64500
0aaaaa

#65000
1aaaaa
b10011 aaaae

#65500
0aaaaa

#66000
1aaaaa
b101000 aaaac
b10100 aaaae
b10000000 aaaai

#66500
0aaaaa

#67000
1aaaaa
b10101 aaaae

#67500
0aaaaa

#68000
1aaaaa
b10110 aaaae

#68500
0aaaaa

#69000
1aaaaa
b100000000000001100010011 aaaad
b10111 aaaae

#69500
0aaaaa

#70000
1aaaaa
b11000 aaaae

#70500
0aaaaa

#71000
1aaaaa
b11001 aaaae

#71500
0aaaaa

#72000
1aaaaa
b101100 aaaac
b11010 aaaae

#72500
0aaaaa

#73000
1aaaaa
b11011 aaaae

#73500
0aaaaa

#74000
1aaaaa
b11100 aaaae

#74500
0aaaaa

#75000
1aaaaa
b110000000000110001000001110011 aaaad
b11101 aaaae

#75500
0aaaaa

#76000
1aaaaa
b11110 aaaae

#76500
0aaaaa

#77000
1aaaaa
b11111 aaaae

#77500
0aaaaa

#78000
1aaaaa
b110000 aaaac
b100000 aaaae
b1000 aaaah

#78500
0aaaaa

#79000
1aaaaa
b1000000 aaaac
b100001 aaaae
b0 aaaah
b110000 aaaak
b10000000000000000000000000000111 aaaal

#79500
0aaaaa

#80000
1aaaaa
b100010 aaaae

#80500
0aaaaa

#81000
1aaaaa
b1001100100000000010000010011 aaaad
b100011 aaaae

#81500
0aaaaa

#82000
1aaaaa
b100100 aaaae

#82500
0aaaaa

#83000
1aaaaa
b100101 aaaae

#83500
0aaaaa

#84000
1aaaaa
b1000100 aaaac
b100110 aaaae

#84500
0aaaaa

#85000
1aaaaa
b100111 aaaae

#85500
0aaaaa

#86000
1aaaaa
b101000 aaaae

#86500
0aaaaa

#87000
1aaaaa
b1010111000100011 aaaad
b101001 aaaae

#87500
0aaaaa

#88000
1aaaaa
b101010 aaaae

#88500
0aaaaa

#89000
1aaaaa
b101011 aaaae

#89500
0aaaaa

#90000
1aaaaa
b101100 aaaae
b0 aaaag
0aaaan

#90500
0aaaaa

#91000
1aaaaa
b1001000 aaaac
b101101 aaaae

#91500
0aaaaa

#92000
1aaaaa
b101110 aaaae
b0 aaaaj

#92500
0aaaaa

#93000
1aaaaa
b101111 aaaae

#93500
0aaaaa

#94000
1aaaaa
b110000001000000000000001110011 aaaad
b110000 aaaae

#94500
0aaaaa

#95000
1aaaaa
b110001 aaaae
b1000 aaaah

#95500
0aaaaa

#96000
1aaaaa
b110010 aaaae

#96500
0aaaaa

#97000
1aaaaa
b110000 aaaac
b110011 aaaae

#97500
0aaaaa

#98000
1aaaaa
b110100 aaaae

#98500
0aaaaa

#99000
1aaaaa
b110101 aaaae

#99500
0aaaaa

#100000
1aaaaa
b1000100000000001110010011 aaaad
b110110 aaaae

#100500
0aaaaa

#101000
1aaaaa
b110111 aaaae

#101500
0aaaaa

#102000
1aaaaa
b111000 aaaae

#102500
0aaaaa

#103000
1aaaaa
b110100 aaaac
b111001 aaaae

