waveforms/riscv_timer_waveform.vcd
$date
     Jul 15, 2026       10:32:07
$end

$version
 SystemC 2.3.4-Accellera --- Apr 22 2024 14:54:19
$end

$timescale
     1 ps
$end

$scope module SystemC $end
$var wire    1  aaaaa  clock       $end
$var wire    1  aaaab  reset       $end
$var wire   32  aaaac  pc [31:0]  $end
$var wire   32  aaaad  cur_inst [31:0]  $end
$var wire   32  aaaae  count_reg [31:0]  $end
$var wire   32  aaaaf  compare_reg [31:0]  $end
$var wire   32  aaaag  control_reg [31:0]  $end
$var wire   32  aaaah  status_reg [31:0]  $end
$var wire    1  aaaai  timer_interrupt       $end
$var wire   32  aaaaj  cpu_addr [31:0]  $end
$var wire    1  aaaak  read_en       $end
$var wire    1  aaaal  write_en       $end
$upscope $end
$enddefinitions  $end

$comment
All initial values are dumped below at time 0 sec = 0 timescale units.
$end

$dumpvars
1aaaaa
1aaaab
b0 aaaac
b0 aaaad
b0 aaaae
b0 aaaaf
b0 aaaag
b0 aaaah
0aaaai
b0 aaaaj
0aaaak
0aaaal
$end

#500
0aaaaa

#1000
1aaaaa

#1500
0aaaaa

#2000
1aaaaa

#2500
0aaaaa

#3000
1aaaaa

#3500
0aaaaa

#4000
1aaaaa

#4500
0aaaaa

#5000
1aaaaa
0aaaab
1aaaak

#5500
0aaaaa

#6000
1aaaaa
0aaaak

#6500
0aaaaa

#7000
1aaaaa
b1110000000010000010000011 aaaad

#7500
0aaaaa

#8000
1aaaaa

#8500
0aaaaa

#9000
1aaaaa
b11100 aaaaj
1aaaak

#9500
0aaaaa

#10000
1aaaaa
0aaaak

#10500
0aaaaa

#11000
1aaaaa
b100 aaaac

#11500
0aaaaa

#12000
1aaaaa
b100 aaaaj
1aaaak

#12500
0aaaaa

#13000
1aaaaa
0aaaak

#13500
0aaaaa

#14000
1aaaaa
b10100000000000100010011 aaaad

#14500
0aaaaa

#15000
1aaaaa

#15500
0aaaaa

#16000
1aaaaa

#16500
0aaaaa

#17000
1aaaaa
b1000 aaaac

#17500
0aaaaa

#18000
1aaaaa
b1000 aaaaj
1aaaak

#18500
0aaaaa

#19000
1aaaaa
0aaaak

#19500
0aaaaa

#20000
1aaaaa
b1000001010001000100011 aaaad

#20500
0aaaaa

#21000
1aaaaa

#21500
0aaaaa

#22000
1aaaaa
b10000000000000000000000010100 aaaaj
1aaaal

#22500
0aaaaa

#23000
1aaaaa
0aaaal

#23500
0aaaaa

#24000
1aaaaa
b1100 aaaac

#24500
0aaaaa

#25000
1aaaaa
b1100 aaaaj
1aaaak

#25500
0aaaaa

#26000
1aaaaa
0aaaak

#26500
0aaaaa

#27000
1aaaaa
b100000000000100010011 aaaad

#27500
0aaaaa

#28000
1aaaaa

#28500
0aaaaa

#29000
1aaaaa

#29500
0aaaaa

#30000
1aaaaa
b10000 aaaac

#30500
0aaaaa

#31000
1aaaaa
b10000 aaaaj
1aaaak

#31500
0aaaaa

#32000
1aaaaa
0aaaak

#32500
0aaaaa

#33000
1aaaaa
b1000001010010000100011 aaaad

#33500
0aaaaa

#34000
1aaaaa

#34500
0aaaaa

#35000
1aaaaa
b10000000000000000000000011000 aaaaj
1aaaal

#35500
0aaaaa

#36000
1aaaaa
b1 aaaae
b1 aaaaf
b1 aaaag
b1 aaaah
0aaaal

#36500
0aaaaa

#37000
1aaaaa
b10100 aaaac
b10 aaaae
b10 aaaaf
b10 aaaag
b10 aaaah

#37500
0aaaaa

#38000
1aaaaa
b11 aaaae
b11 aaaaf
b11 aaaag
b11 aaaah
b10100 aaaaj
1aaaak

#38500
0aaaaa

#39000
1aaaaa
b100 aaaae
b100 aaaaf
b100 aaaag
b100 aaaah
0aaaak

#39500
0aaaaa

#40000
1aaaaa
b1010000110000011 aaaad
b101 aaaae
b101 aaaaf
b101 aaaag
b101 aaaah
1aaaai

