waveforms/riscv_lui_waveform.vcd
$date
     Jul 13, 2026       11:32:13
$end

$version
 SystemC 2.3.4-Accellera --- Apr 22 2024 14:54:19
$end

$timescale
     1 ps
$end

$scope module SystemC $end
$var wire    1  aaaaa  clock       $end
$var wire    1  aaaab  reset       $end
$var wire   32  aaaac  pc [31:0]  $end
$var wire   32  aaaad  cur_inst [31:0]  $end
$var wire   32  aaaae  addr_bus [31:0]  $end
$upscope $end
$enddefinitions  $end

$comment
All initial values are dumped below at time 0 sec = 0 timescale units.
$end

$dumpvars
1aaaaa
1aaaab
b0 aaaac
b0 aaaad
b0 aaaae
$end

#500
0aaaaa

#1000
1aaaaa

#1500
0aaaaa

#2000
1aaaaa

#2500
0aaaaa

#3000
1aaaaa

#3500
0aaaaa

#4000
1aaaaa

#4500
0aaaaa

#5000
1aaaaa
0aaaab

#5500
0aaaaa

#6000
1aaaaa

#6500
0aaaaa

#7000
1aaaaa
b10000000000000000000010110111 aaaad

#7500
0aaaaa

#8000
1aaaaa

#8500
0aaaaa

#9000
1aaaaa

#9500
0aaaaa

#10000
1aaaaa
b100 aaaac

#10500
0aaaaa

#11000
1aaaaa
b100 aaaae

#11500
0aaaaa

#12000
1aaaaa

#12500
0aaaaa

#13000
1aaaaa
b110001100000000000100010011 aaaad

#13500
0aaaaa

#14000
1aaaaa

#14500
0aaaaa

#15000
1aaaaa

#15500
0aaaaa

#16000
1aaaaa
b1000 aaaac

#16500
0aaaaa

#17000
1aaaaa
b1000 aaaae

#17500
0aaaaa

#18000
1aaaaa

#18500
0aaaaa

#19000
1aaaaa
b1000001010000000100011 aaaad

#19500
0aaaaa

#20000
1aaaaa

#20500
0aaaaa

#21000
1aaaaa
b10000000000000000000000000000 aaaae

#21500
0aaaaa

#22000
1aaaaa

#22500
0aaaaa

#23000
1aaaaa
b1100 aaaac

