waveforms/riscv_interrupt_waveform.vcd
$date
     Jul 10, 2026       17:44:04
$end

$version
 SystemC 2.3.4-Accellera --- Apr 22 2024 14:54:19
$end

$timescale
     1 ps
$end

$scope module SystemC $end
$var wire    1  aaaaa  clock       $end
$var wire    1  aaaab  reset       $end
$var wire   32  aaaac  pc [31:0]  $end
$var wire   32  aaaad  cur_inst [31:0]  $end
$var wire   32  aaaae  count_reg [31:0]  $end
$var wire   32  aaaaf  compare_reg [31:0]  $end
$var wire   32  aaaag  status_reg [31:0]  $end
$var wire   32  aaaah  saved_pc [31:0]  $end
$var wire   32  aaaai  interrupt_vector [31:0]  $end
$var wire    1  aaaaj  in_interrupt       $end
$var wire    1  aaaak  timer_interrupt       $end
$var wire    1  aaaal  cpu_interrupt       $end
$upscope $end
$enddefinitions  $end

$comment
All initial values are dumped below at time 0 sec = 0 timescale units.
$end

$dumpvars
1aaaaa
1aaaab
b0 aaaac
b0 aaaad
b0 aaaae
b11111111111111111111111111111111 aaaaf
b0 aaaag
b0 aaaah
b10000000 aaaai
0aaaaj
0aaaak
0aaaal
$end

#500
0aaaaa

#1000
1aaaaa

#1500
0aaaaa

#2000
1aaaaa

#2500
0aaaaa

#3000
1aaaaa

#3500
0aaaaa

#4000
1aaaaa

#4500
0aaaaa

#5000
1aaaaa
0aaaab

#5500
0aaaaa

#6000
1aaaaa

#6500
0aaaaa

#7000
1aaaaa
b10000000000010000010000011 aaaad

#7500
0aaaaa

#8000
1aaaaa

#8500
0aaaaa

#9000
1aaaaa

#9500
0aaaaa

#10000
1aaaaa

#10500
0aaaaa

#11000
1aaaaa
b100 aaaac

#11500
0aaaaa

#12000
1aaaaa

#12500
0aaaaa

#13000
1aaaaa

#13500
0aaaaa

#14000
1aaaaa
b10100000000000100010011 aaaad

#14500
0aaaaa

#15000
1aaaaa

#15500
0aaaaa

#16000
1aaaaa

#16500
0aaaaa

#17000
1aaaaa
b1000 aaaac

#17500
0aaaaa

#18000
1aaaaa

#18500
0aaaaa

#19000
1aaaaa

#19500
0aaaaa

#20000
1aaaaa
b1000001010001000100011 aaaad

#20500
0aaaaa

#21000
1aaaaa

#21500
0aaaaa

#22000
1aaaaa

#22500
0aaaaa

#23000
1aaaaa
b101 aaaaf

#23500
0aaaaa

#24000
1aaaaa
b1100 aaaac

#24500
0aaaaa

#25000
1aaaaa

#25500
0aaaaa

#26000
1aaaaa

#26500
0aaaaa

#27000
1aaaaa
b100000000000100010011 aaaad

#27500
0aaaaa

#28000
1aaaaa

#28500
0aaaaa

#29000
1aaaaa

#29500
0aaaaa

#30000
1aaaaa
b10000 aaaac

#30500
0aaaaa

#31000
1aaaaa

#31500
0aaaaa

#32000
1aaaaa

#32500
0aaaaa

#33000
1aaaaa
b1000001010010000100011 aaaad

#33500
0aaaaa

#34000
1aaaaa

#34500
0aaaaa

#35000
1aaaaa

#35500
0aaaaa

#36000
1aaaaa
b1 aaaae

#36500
0aaaaa

#37000
1aaaaa
b10100 aaaac
b10 aaaae

#37500
0aaaaa

#38000
1aaaaa
b11 aaaae

#38500
0aaaaa

#39000
1aaaaa
b100 aaaae

#39500
0aaaaa

#40000
1aaaaa
b110000000001100011 aaaad
b101 aaaae
b1 aaaag
1aaaak
1aaaal

#40500
0aaaaa

#41000
1aaaaa
b110 aaaae

#41500
0aaaaa

#42000
1aaaaa
b111 aaaae

#42500
0aaaaa

#43000
1aaaaa
b1000 aaaae

#43500
0aaaaa

#44000
1aaaaa
b10000000 aaaac
b1001 aaaae
b10100 aaaah
1aaaaj

#44500
0aaaaa

#45000
1aaaaa
b1010 aaaae

#45500
0aaaaa

#46000
1aaaaa
b110000001010011000100011 aaaad
b1011 aaaae

#46500
0aaaaa

#47000
1aaaaa
b1100 aaaae

#47500
0aaaaa

#48000
1aaaaa
b1101 aaaae

#48500
0aaaaa

#49000
1aaaaa
b1110 aaaae
b0 aaaag
0aaaak
0aaaal

#49500
0aaaaa

#50000
1aaaaa
b10000100 aaaac
b1111 aaaae

#50500
0aaaaa

#51000
1aaaaa
b10000 aaaae

#51500
0aaaaa

#52000
1aaaaa
b10001 aaaae

#52500
0aaaaa

#53000
1aaaaa
b110001100000000001100010011 aaaad
b10010 aaaae

#53500
0aaaaa

#54000
1aaaaa
b10011 aaaae

#54500
0aaaaa

#55000
1aaaaa
b10100 aaaae

#55500
0aaaaa

#56000
1aaaaa
b10001000 aaaac
b10101 aaaae

#56500
0aaaaa

#57000
1aaaaa
b10110 aaaae

#57500
0aaaaa

#58000
1aaaaa
b10111 aaaae

#58500
0aaaaa

#59000
1aaaaa
b1110011 aaaad
b11000 aaaae

#59500
0aaaaa

#60000
1aaaaa
b11001 aaaae
0aaaaj

#60500
0aaaaa

#61000
1aaaaa
b11010 aaaae

#61500
0aaaaa

#62000
1aaaaa
b10100 aaaac
b11011 aaaae

#62500
0aaaaa

#63000
1aaaaa
b11100 aaaae

#63500
0aaaaa

#64000
1aaaaa
b11101 aaaae

#64500
0aaaaa

#65000
1aaaaa
b110000000001100011 aaaad
b11110 aaaae

#65500
0aaaaa

#66000
1aaaaa
b11111 aaaae

#66500
0aaaaa

#67000
1aaaaa
b100000 aaaae

#67500
0aaaaa

#68000
1aaaaa
b11000 aaaac
b100001 aaaae

#68500
0aaaaa

#69000
1aaaaa
b100010 aaaae

#69500
0aaaaa

#70000
1aaaaa
b100011 aaaae

#70500
0aaaaa

#71000
1aaaaa
b110001100000000001110010011 aaaad
b100100 aaaae

#71500
0aaaaa

#72000
1aaaaa
b100101 aaaae

#72500
0aaaaa

#73000
1aaaaa
b100110 aaaae

#73500
0aaaaa

#74000
1aaaaa
b11100 aaaac
b100111 aaaae

