tests/waveform/riscv_branch_waveform.vcd
$date
     Jul 02, 2026       17:27:47
$end

$version
 SystemC 2.3.4-Accellera --- Apr 22 2024 14:54:19
$end

$timescale
     1 ps
$end

$scope module SystemC $end
$var wire    1  aaaaa  clock       $end
$var wire    1  aaaab  reset       $end
$var wire   32  aaaac  pc [31:0]  $end
$var wire   32  aaaad  cur_inst [31:0]  $end
$var wire    7  aaaae  opcode [6:0]  $end
$var wire    5  aaaaf  rs1 [4:0]  $end
$var wire    5  aaaag  rs2 [4:0]  $end
$var wire   32  aaaah  branch_immediate [31:0]  $end
$var wire    1  aaaai  branch_taken       $end
$var wire   32  aaaaj  branch_target [31:0]  $end
$var wire    1  aaaak  read_en       $end
$var wire    1  aaaal  write_en       $end
$upscope $end
$enddefinitions  $end

$comment
All initial values are dumped below at time 0 sec = 0 timescale units.
$end

$dumpvars
1aaaaa
1aaaab
b0 aaaac
b0 aaaad
b0 aaaae
b0 aaaaf
b0 aaaag
b0 aaaah
0aaaai
b0 aaaaj
0aaaak
0aaaal
$end

#500
0aaaaa

#1000
1aaaaa

#1500
0aaaaa

#2000
1aaaaa

#2500
0aaaaa

#3000
1aaaaa

#3500
0aaaaa

#4000
1aaaaa

#4500
0aaaaa

#5000
1aaaaa
0aaaab
1aaaak

#5500
0aaaaa

#6000
1aaaaa
0aaaak

#6500
0aaaaa

#7000
1aaaaa
b10100000000000010010011 aaaad
b10011 aaaae
b101 aaaag
b101 aaaah

#7500
0aaaaa

#8000
1aaaaa
b100 aaaaj

#8500
0aaaaa

#9000
1aaaaa

#9500
0aaaaa

#10000
1aaaaa
b100 aaaac

#10500
0aaaaa

#11000
1aaaaa
1aaaak

#11500
0aaaaa

#12000
1aaaaa
0aaaak

#12500
0aaaaa

#13000
1aaaaa
b10100000000000100010011 aaaad

#13500
0aaaaa

#14000
1aaaaa
b1000 aaaaj

#14500
0aaaaa

#15000
1aaaaa

#15500
0aaaaa

#16000
1aaaaa
b1000 aaaac

#16500
0aaaaa

#17000
1aaaaa
1aaaak

#17500
0aaaaa

#18000
1aaaaa
0aaaak

#18500
0aaaaa

#19000
1aaaaa
b1000001000010001100011 aaaad
b1100011 aaaae
b1 aaaaf
b10 aaaag
b1000 aaaah

#19500
0aaaaa

#20000
1aaaaa
1aaaai
b10000 aaaaj

#20500
0aaaaa

#21000
1aaaaa

#21500
0aaaaa

#22000
1aaaaa
b10000 aaaac

#22500
0aaaaa

#23000
1aaaaa
1aaaak

#23500
0aaaaa

#24000
1aaaaa
0aaaak

#24500
0aaaaa

#25000
1aaaaa
b101000000000000110010011 aaaad
b10011 aaaae
b0 aaaaf
b1010 aaaag
b1010 aaaah

#25500
0aaaaa

#26000
1aaaaa
0aaaai
b10100 aaaaj

#26500
0aaaaa

#27000
1aaaaa

#27500
0aaaaa

#28000
1aaaaa
b10100 aaaac

#28500
0aaaaa

#29000
1aaaaa
1aaaak

#29500
0aaaaa

#30000
1aaaaa
0aaaak

#30500
0aaaaa

#31000
1aaaaa
b1000001001010001100011 aaaad
b1100011 aaaae
b1 aaaaf
b10 aaaag
b1000 aaaah

#31500
0aaaaa

#32000
1aaaaa
b11000 aaaaj

#32500
0aaaaa

#33000
1aaaaa

#33500
0aaaaa

#34000
1aaaaa
b11000 aaaac

#34500
0aaaaa

#35000
1aaaaa
1aaaak

#35500
0aaaaa

#36000
1aaaaa
0aaaak

#36500
0aaaaa

#37000
1aaaaa
b11100000000001000010011 aaaad
b10011 aaaae
b0 aaaaf
b111 aaaag
b111 aaaah

#37500
0aaaaa

#38000
1aaaaa
b11100 aaaaj

#38500
0aaaaa

#39000
1aaaaa

#39500
0aaaaa

#40000
1aaaaa
b11100 aaaac

#40500
0aaaaa

#41000
1aaaaa
1aaaak

#41500
0aaaaa

#42000
1aaaaa
0aaaak

#42500
0aaaaa

#43000
1aaaaa
b10000011000001010110011 aaaad
b110011 aaaae
b11 aaaaf
b100 aaaag
b0 aaaah

#43500
0aaaaa

#44000
1aaaaa
b100000 aaaaj

#44500
0aaaaa

#45000
1aaaaa

#45500
0aaaaa

#46000
1aaaaa
b100000 aaaac

