tests/waveform/riscv_load_store_waveform.vcd
$date
     Jul 02, 2026       10:33:55
$end

$version
 SystemC 2.3.4-Accellera --- Apr 22 2024 14:54:19
$end

$timescale
     1 ps
$end

$scope module SystemC $end
$var wire    1  aaaaa  clock       $end
$var wire    1  aaaab  reset       $end
$var wire   32  aaaac  pc [31:0]  $end
$var wire   32  aaaad  cur_inst [31:0]  $end
$var wire   32  aaaae  addr_bus [31:0]  $end
$var wire   32  aaaaf  mem_to_cpu_bus [31:0]  $end
$var wire   32  aaaag  cpu_to_mem_bus [31:0]  $end
$var wire    1  aaaah  read_en       $end
$var wire    1  aaaai  write_en       $end
$var wire   32  aaaaj  alu_res [31:0]  $end
$upscope $end
$enddefinitions  $end

$comment
All initial values are dumped below at time 0 sec = 0 timescale units.
$end

$dumpvars
1aaaaa
1aaaab
b0 aaaac
b0 aaaad
b0 aaaae
b0 aaaaf
b0 aaaag
0aaaah
0aaaai
b0 aaaaj
$end

#500
0aaaaa

#1000
1aaaaa

#1500
0aaaaa

#2000
1aaaaa

#2500
0aaaaa

#3000
1aaaaa

#3500
0aaaaa

#4000
1aaaaa

#4500
0aaaaa

#5000
1aaaaa
0aaaab
1aaaah

#5500
0aaaaa

#6000
1aaaaa
b100000000000000000010010011 aaaaf
0aaaah

#6500
0aaaaa

#7000
1aaaaa
b100000000000000000010010011 aaaad

#7500
0aaaaa

#8000
1aaaaa
b1000000 aaaaj

#8500
0aaaaa

#9000
1aaaaa

#9500
0aaaaa

#10000
1aaaaa
b100 aaaac

#10500
0aaaaa

#11000
1aaaaa
b100 aaaae
1aaaah

#11500
0aaaaa

#12000
1aaaaa
b1100100000000000100010011 aaaaf
0aaaah

#12500
0aaaaa

#13000
1aaaaa
b1100100000000000100010011 aaaad

#13500
0aaaaa

#14000
1aaaaa
b11001 aaaaj

#14500
0aaaaa

#15000
1aaaaa

#15500
0aaaaa

#16000
1aaaaa
b1000 aaaac

#16500
0aaaaa

#17000
1aaaaa
b1000 aaaae
1aaaah

#17500
0aaaaa

#18000
1aaaaa
b1000001010000000100011 aaaaf
0aaaah

#18500
0aaaaa

#19000
1aaaaa
b1000001010000000100011 aaaad

#19500
0aaaaa

#20000
1aaaaa
b1000000 aaaaj

#20500
0aaaaa

#21000
1aaaaa
b1000000 aaaae
b11001 aaaag
1aaaai

#21500
0aaaaa

#22000
1aaaaa
0aaaai

#22500
0aaaaa

#23000
1aaaaa
b1100 aaaac

#23500
0aaaaa

#24000
1aaaaa
b1100 aaaae
1aaaah

#24500
0aaaaa

#25000
1aaaaa
b1010001010000011 aaaaf
0aaaah

#25500
0aaaaa

#26000
1aaaaa
b1010001010000011 aaaad

#26500
0aaaaa

#27000
1aaaaa

#27500
0aaaaa

#28000
1aaaaa
b1000000 aaaae
1aaaah

#28500
0aaaaa

#29000
1aaaaa
b11001 aaaaf
0aaaah

#29500
0aaaaa

#30000
1aaaaa
b10000 aaaac

#30500
0aaaaa

#31000
1aaaaa
b10000 aaaae
1aaaah

#31500
0aaaaa

#32000
1aaaaa
b1000101000001100110011 aaaaf
0aaaah

#32500
0aaaaa

#33000
1aaaaa
b1000101000001100110011 aaaad

#33500
0aaaaa

#34000
1aaaaa
b110010 aaaaj

#34500
0aaaaa

#35000
1aaaaa

#35500
0aaaaa

#36000
1aaaaa
b10100 aaaac

#36500
0aaaaa

#37000
1aaaaa
b10100 aaaae
1aaaah

#37500
0aaaaa

#38000
1aaaaa
b10011 aaaaf
0aaaah

#38500
0aaaaa

#39000
1aaaaa
b10011 aaaad

#39500
0aaaaa

#40000
1aaaaa
b0 aaaaj

#40500
0aaaaa

#41000
1aaaaa

#41500
0aaaaa

#42000
1aaaaa
b11000 aaaac

